{
    "interface": "https://schema.skao.int/ska-oso-pdm-sbd/0.1",
    "sbd_id": "sbd-mvp01-20200325-00001",
    "telescope": "ska_low",
    "metadata": {
        "version": 1,
        "created_by": "Andy Biggs",
        "created_on": "2024-08-01T15:43:53.971548Z",
        "last_modified_by": null,
        "last_modified_on": "2022-08-01T15:43:53.971548Z"
     },
    "activities": {
        "observe":{
            "kind":"git",
            "path":"git:///scripts/allocate_and_observe_sb.py",
            "repo":"https://gitlab.com/ska-telescope/oso/ska-oso-scripting.git",
            "branch":"master",
            "function_args":{
                "init":{
                    "args":[],
                    "kwargs":{
                        "subarray_id": 1
                    }
                },
                "main":{
                    "args":[],
                    "kwargs":{}
                }
            }
        }
    },
    "mccs_allocation": {
        "mccs_allocation_id": "mccs config 123",
        "selected_subarray_definition": "AA0.5",
        "subarray_beams": [
            {
                "subarray_beam_id": 1,
                "apertures": [
                    {
                        "station_id": 345,
                        "substation_id": 1,
                        "weighting_key": "uniform"
                    },
                    {
                        "station_id": 350,
                        "substation_id": 1,
                        "weighting_key": "uniform"
                    },
                    {
                        "station_id": 352,
                        "substation_id": 1,
                        "weighting_key": "uniform"
                    },
                    {
                        "station_id": 431,
                        "substation_id": 1,
                        "weighting_key": "uniform"
                    }
                ]
            }
        ]
    },
    "targets": [
        {
            "target_id": "47 Tuc",
            "reference_coordinate": {
                "kind": "equatorial",
                "reference_frame": "icrs",
                "ra": "00:24:05.359",
                "dec": "-72:04:53.20",
                "unit": [
                    "hourangle",
                    "deg"
                ]
            },
            "radial_velocity": {
                "quantity": {
                    "value": -17.2,
                    "unit": "km / s"
                },
                "definition": "OPTICAL",
                "reference_frame": "BARYCENTRIC",
                "redshift": 0.0
            },
            "pointing_pattern": {
                "active": "SinglePointParameters",
                "parameters": [
                    {
                         "kind": "SinglePointParameters",
                         "offset_x_arcsec": 0.0,
                         "offset_y_arcsec": 0.0
                    }
                ]
            },
            "tied_array_beams": {
                "pst_beams": [],
                "pss_beams": [],
                "vlbi_beams": []
            }
        },
        {
            "target_id": "PKS J0408-6545",
            "reference_coordinate": {
                "kind": "equatorial",
                "reference_frame": "icrs",
                "ra": "04:08:20.37884",
                "dec": "-65:45:09.0806",
                "unit": [
                    "hourangle",
                    "deg"
                ]
            },
            "radial_velocity": {
                "quantity": {
                    "value": 0.0,
                    "unit": "km / s"
                },
                "definition": "OPTICAL",
                "reference_frame": "BARYCENTRIC",
                "redshift": 0.0
            },
            "pointing_pattern": {
                "active": "SinglePointParameters",
                "parameters": [
                    {
                         "kind": "SinglePointParameters",
                         "offset_x_arcsec": 0.0,
                         "offset_y_arcsec": 0.0
                    }
                ]
            }
        }
    ],
    "csp_configurations": [
        {
            "common": {},
            "config_id": "csp config 1",
            "lowcbf": {
                "correlation_spws": [
                    {
                        "spw_id": 1,
                        "logical_fsp_ids": [1],
                        "zoom_factor": 0,
                        "centre_frequency": 101.171875e6,
                        "number_of_channels": 32,
                        "integration_time_ms": 849
                    },
                    {
                        "spw_id": 2,
                        "logical_fsp_ids": [2],
                        "zoom_factor": 0,
                        "centre_frequency": 201.171875e6,
                        "number_of_channels": 32,
                        "integration_time_ms": 849
                    }
                ]
            }
        }
    ],
    "scan_definitions": [
        {
          "scan_definition_id": "science",
          "target_ref": "47 Tuc",
          "csp_configuration_ref": "csp config 1",
          "scan_duration_ms": 30000,
          "pointing_correction": "MAINTAIN"
        },
        {
            "scan_definition_id": "calibration",
            "target_ref": "PKS J0408-6545",
            "csp_configuration_ref": "csp config 1",
            "scan_duration_ms": 15000,
            "pointing_correction": "MAINTAIN"
        }
    ],
    "scan_sequence": ["calibration", "science", "calibration"]
}
