{
  "interface": "https://schema.skao.int/ska-oso-pdm-sbd/0.1",
  "sbd_id": "sbi-mvp01-20200325-00001",
  "telescope": "ska_mid",
  "metadata": {
    "version": 1,
    "created_by": "Liz Bartlett",
    "created_on": "2022-03-28T15:43:53.971548Z",
    "last_modified_on": "2024-12-11T10:45:03.313536Z",
    "last_modified_by": "Andy Biggs"
  },
  "activities": {},
  "dish_allocations": {
    "dish_ids": [
      "SKA001",
      "SKA036",
      "SKA063",
      "SKA100"
    ],
    "dish_allocation_id": "dish-allocation-123",
    "selected_subarray_definition": "AA0.5"
  },
  "targets": [
    {
      "target_id": "SGRS J04008456",
      "pointing_pattern": {
        "active": "SinglePointParameters",
        "parameters": [
          {
            "kind": "SinglePointParameters",
            "offset_x_arcsec": 0.0,
            "offset_y_arcsec": 0.0
          }
        ]
      },
      "reference_coordinate": {
        "kind": "equatorial",
        "ra": "04:01:18.4",
        "dec": "-84:56:35.9",
        "reference_frame": "icrs",
        "unit": [
          "hourangle",
          "deg"
        ]
      }
    }
  ],
  "csp_configurations": [
    {
      "config_id": "csp config 123",
      "common": {},
      "midcbf": {
        "frequency_band": "1",
        "subbands": [
          {
            "frequency_slice_offset": {
              "value": 0.0,
              "unit": "MHz"
            },
            "correlation_spws": [
              {
                "spw_id": 1,
                "logical_fsp_ids": [1,2],
                "zoom_factor": 0,
                "centre_frequency": 500e6,
                "number_of_channels": 1000,
                "channel_averaging_factor": 1,
                "time_integration_factor": 1
              },
              {
                "spw_id": 2,
                "logical_fsp_ids": [3],
                "zoom_factor": 0,
                "centre_frequency": 600e6,
                "number_of_channels": 500,
                "channel_averaging_factor": 1,
                "time_integration_factor": 1
              }
            ]
          }
        ]
      }
    }
  ],
  "scan_definitions": [
    {
      "scan_duration_ms": 60000,
      "target_ref": "SGRS J04008456",
      "dish_allocation_ref": "dish-allocation-123",
      "scan_type_ref": "science",
      "scan_definition_id": "science scan",
      "csp_configuration_ref": "csp config 123"
    }
  ],
  "scan_sequence": [
    "science scan"
  ],
  "sdp_configuration": {
    "execution_block": {
      "eb_id": "",
      "max_length": 10000.0,
      "context": {},
      "scan_types": [
        {
          "scan_type_id": "science",
          "beams": [
            {
              "beam_ref": "vis0",
              "field_ref": "SGRS J04008456",
              "channels_ref": "vis_channels",
              "polarisations_ref": "all"
            }
          ]
        }
      ],
      "beams": [
        {
          "beam_id": "vis0",
          "function": "visibilities"
        }
      ],
      "channels": [
        {
          "channels_id": "vis_channels",
          "spectral_windows": [
            {
              "spectral_window_id": "spw_continuum1",
              "count": 1000,
              "start": 0,
              "stride": 1,
              "freq_min": 493280000,
              "freq_max": 506720000
            },
            {
              "spectral_window_id": "spw_continuum2",
              "count": 500,
              "start": 1000,
              "stride": 1,
              "freq_min": 596640000,
              "freq_max": 603360000
            }
          ]
        }
      ],
      "polarisations": [
        {
          "polarisations_id": "all",
          "corr_type": ["XX", "XY", "YX", "YY"]
        }
      ]
    },
    "processing_blocks": [
      {
        "pb_id": "",
        "sbi_refs": [],
        "script": {
          "version": "4.5.0",
          "name": "vis-receive",
          "kind": "realtime"
        },
        "parameters": {
          "dry_run": true,
          "channels_per_port": 20,
          "pod_settings": [
            {
              "networkMapping": {
                 "ip": "1.2.3.4/0"
              }
            }
          ]
        }
      }
    ],
    "resources": {
      "receptors": ["SKA001", "SKA036", "SKA063", "SKA100"],
      "receive_nodes": 1
    }
  }
}
